<?xml version="1.0" standalone="no"?>
<!DOCTYPE svg PUBLIC "-//W3C//DTD SVG 1.1//EN" "http://www.w3.org/Graphics/SVG/1.1/DTD/svg11.dtd">
<svg xmlns="http://www.w3.org/2000/svg">
<metadata>Copyright (C) 2016 by original authors @ fontello.com</metadata>
<defs>
<font id="vk_ico" horiz-adv-x="1000" >
<font-face font-family="vk_ico" font-weight="400" font-stretch="normal" units-per-em="1000" ascent="850" descent="-150" />
<missing-glyph horiz-adv-x="1000" />
<glyph glyph-name="youtube-play" unicode="&#xe800;" d="m714 350q0 21-16 30l-286 179q-17 11-36 1-19-10-19-31v-358q0-21 19-31 9-4 17-4 11 0 19 5l286 179q16 9 16 30z m286 0q0-54-1-84t-4-76-13-82q-9-41-38-69t-70-32q-123-14-374-14t-374 14q-40 4-70 32t-39 69q-7 36-12 82t-4 76-1 84 1 84 4 76 13 82q9 41 38 69t70 32q123 14 374 14t374-14q40-4 70-32t39-69q8-36 12-82t4-76 1-84z" horiz-adv-x="1000" />
<glyph glyph-name="linkedin" unicode="&#xe801;" d="m0 730q0 50 35 83t91 32q55 0 89-32 35-33 35-86 0-48-34-80-35-33-92-33l-1 0q-55 0-89 33t-34 83z m13-875l0 668 222 0 0-668-222 0z m345 0l222 0 0 373q0 35 8 54 14 34 43 58t71 23q112 0 112-151l0-357 222 0 0 383q0 148-70 225t-185 76q-129 0-201-111l0-2-1 0 1 2 0 95-222 0q2-32 2-199t-2-469z" horiz-adv-x="1036" />
<glyph glyph-name="facebook" unicode="&#xe802;" d="m124-150v469h-124v169h124v145c0 113 73 217 242 217 69 0 119-7 119-7l-4-157s-51 0-108 0c-60 0-70-28-70-74v-124h183l-8-169h-175v-469h-179" horiz-adv-x="486" />
<glyph glyph-name="vk" unicode="&#xe803;" d="m0 654q10 8 25 12 14 4 25 4l9 0q10 0 24-1 22-1 32-1 6 0 38 2 16 1 29 1t23-1q20-2 32-8 6-3 13-13t12-19 11-25 10-22q38-82 94-163 2-3 7-11t9-12 9-12 10-11 11-8 11-6 12 0q28 5 31 117 1 19 1 35 0 74-15 102-6 11-15 18t-25 12-23 10q14 28 50 37t96 9l53 0t26 0 27-3l22-6t20-9 12-14q9-18 11-42 0-7 1-14 0-20-3-52-4-42-4-52-3-23-3-46 0-18 2-38 4-44 30-61 9 1 17 4t15 11 11 12 13 16 10 14q47 62 94 163l9 23t12 26 12 20 15 13q16 7 38 7l9 0q20 0 46-2 32-2 47-2 9 0 28 1t32 2 30-1 25-6 14-13q3-6 3-13 0-29-35-87-17-29-34-52t-46-58-37-47q-2-2-14-18t-17-24-12-22-5-27q0-8 3-15t10-15 10-12 13-13 12-11q71-65 112-117 40-52 40-75 0-33-51-41-26-4-53-4-21 0-43 3-20 2-37 2-26 0-45-5l-6 0q-66 11-139 94-4 4-17 21t-22 25-23 17-27 6q-23-4-30-29t-9-59-10-49q-13-24-79-24-28 0-66 4-78 8-141 40t-101 68-81 92q-104 133-197 322-3 6-11 23t-12 25-9 24-8 28-3 26z" horiz-adv-x="1220" />
<glyph glyph-name="skype" unicode="&#xe804;" d="m0 577q0 113 80 193t193 80q78 0 145-42 36 7 80 7 195 0 333-138t138-332q0-49-11-101 28-59 28-121 0-113-80-193t-193-80q-68 0-129 32-45-8-86-8-194 0-332 138t-138 333q0 47 9 94-37 65-37 138z m221-366q0-41 30-85 71-104 246-104 50 0 97 11t87 34 66 64 25 94q0 58-29 98t-74 58-95 33-96 23-73 26-30 44q0 33 37 49t74 16q40 0 66-12t38-30 21-35 25-30 39-13q27 0 48 19t20 46-15 54q-30 55-95 80t-138 25q-46 0-89-9t-83-29-64-56-25-87q0-66 40-106t97-57 115-29 97-33 40-59q0-29-23-49t-50-27-57-7q-38 0-64 11t-39 27-22 35-18 35-23 27-37 10q-28 0-48-17t-21-45z" horiz-adv-x="986" />
<glyph glyph-name="twitter" unicode="&#xe805;" d="m0-37q30-3 60-3 176 0 314 108-82 1-147 50t-89 125q20-4 47-4 35 0 67 9-88 17-145 87t-58 160l0 3q53-30 115-31-52 34-82 90t-31 120q0 68 35 127 94-117 230-186t290-78q-7 33-7 58 0 104 74 178t179 74q109 0 184-80 87 18 160 62-28-91-110-140 73 9 144 40-48-75-125-131l0-33q0-101-29-202t-90-194-145-165-201-115-253-42q-209 0-387 113z" horiz-adv-x="1230" />
<glyph glyph-name="vimeo" unicode="&#xe806;" d="m0 578q55 65 110 116t96 78 72 43 48 21l17 4q12 2 24 2 19 0 35-6 26-10 43-34t29-55 21-72 15-78 14-79 14-71q32-125 52-177t41-53q24 0 67 56t93 151q26 48 26 91 0 13-2 23-9 52-51 65-11 4-24 4-35 0-83-26 22 130 134 209 85 60 174 60 12 0 24-1 102-8 139-90 18-38 18-88 0-29-6-61-18-102-69-208t-113-187-133-155-123-118-91-68q-42-24-78-24t-70 21-56 48-38 57q-18 38-97 299t-97 280q-1 2-4 4t-13 5-24 0-37-14-50-33z" horiz-adv-x="1146" />
<glyph glyph-name="gplus" unicode="&#xe807;" d="m0 32q0 87 89 155t215 68l54 0q-42 40-42 86 0 29 16 58-10-1-29-1-104 0-170 65t-66 160q0 91 82 159t187 68l310 0-69-50-98 0q47-18 74-68t26-111q0-93-88-162-37-29-48-46t-11-42q0-19 27-48t54-49q61-43 85-88t23-113q0-90-82-157t-222-66q-133 0-225 50t-92 132z m112 33q0-69 59-118t145-48q119 0 173 44t53 117q0 19-4 32-3 11-7 21t-12 19-14 16-19 16-21 15-25 18-26 17q-39 12-77 12-90 1-157-47t-68-114z m66 559q11-79 61-136t109-58q59-2 94 52t25 133-59 134-110 57-95-51-25-131z m555-24l0 50 200 0 0 200 50 0 0-200 201 0 0-50-201 0 0-201-50 0 0 201-200 0z" horiz-adv-x="1184" />
<glyph glyph-name="paypal" unicode="&#xe808;" d="m0-41l194 891 438 0q50 0 97-18t84-55 53-95-1-135q-29-136-128-214t-234-78l-183 0-63-296-257 0z m100-109l257 0 63 295 184 0q134 0 233 78t129 214q28 135-43 219 33-74 12-170-29-136-128-214t-234-78l-183 0-63-295-216 0z m257 575l83 0 42 183 125 0q2 0 17-3-8 29-31 47t-56 17l-125 0z m125 1q48 2 90 37t52 84q0 2 1 6t1 6l-114 0z" horiz-adv-x="974" />
</font>
</defs>
</svg>